{
	"info": {
		"_postman_id": "71578ffb-c8a1-4a3e-bf81-f6446a41eb60",
		"name": "DataDrivenTesting",
		"schema": "https://schema.getpostman.com/json/collection/v2.1.0/collection.json",
		"_exporter_id": "31566986"
	},
	"item": [
		{
			"name": "POST_API_TCI Copy",
			"event": [
				{
					"listen": "test",
					"script": {
						"exec": [
							"var status=pm.response.status;\r",
							"console.log(status);\r",
							"var countstart=pm.collectionVariables.get(\"start\");\r",
							"var countend=pm.collectionVariables.get(\"end\");\r",
							"\r",
							"if (status==\"Created\"){\r",
							"    pm.test(\"Status code is 201\", function () {\r",
							"        pm.response.to.have.status(201);\r",
							"    });\r",
							"}\r",
							"else{\r",
							"    if(countstart< eval(countend-1))\r",
							"    {    pm.collectionVariables.set(\"start\",eval(countstart+1))\r",
							"    console.log(pm.collectionVariables.get(\"start\"))\r",
							"    postman.setNextRequest(\"New_Request1\");\r",
							"    }\r",
							" else{\r",
							"        postman.setNextRequest(null);\r",
							"        pm.collectionVariables.set(\"start\",0);\r",
							"        pm.test(\"Status code is 200\", function () {\r",
							"        pm.response.to.have.status(200);\r",
							"        });\r",
							"    }\r",
							"}\r",
							""
						],
						"type": "text/javascript"
					}
				},
				{
					"listen": "prerequest",
					"script": {
						"exec": [
							"var req_name=pm.variables.replaceIn('{{$randomFullName}}');\r",
							"console.log(req_name);\r",
							"pm.collectionVariables.set(\"coll_req_name\",req_name);\r",
							"\r",
							"var req_job=pm.variables.replaceIn('{{$randomJobTitle}}');\r",
							"console.log(req_job);\r",
							"pm.collectionVariables.set(\"Coll_req_job\",req_job);"
						],
						"type": "text/javascript"
					}
				}
			],
			"request": {
				"method": "POST",
				"header": [],
				"body": {
					"mode": "raw",
					"raw": "{\r\n    \"name\": \"{{Coll_Req_Name}}\",\r\n    \"job\": \"{{Coll_Req_Job}}\"\r\n}",
					"options": {
						"raw": {
							"language": "json"
						}
					}
				},
				"url": {
					"raw": "{{base_url}}api/users",
					"host": [
						"{{base_url}}api"
					],
					"path": [
						"users"
					]
				}
			},
			"response": []
		}
	],
	"event": [
		{
			"listen": "prerequest",
			"script": {
				"type": "text/javascript",
				"exec": [
					""
				]
			}
		},
		{
			"listen": "test",
			"script": {
				"type": "text/javascript",
				"exec": [
					"var status=pm.response.status;",
					"var countstart=pm.collectionVariables.get(\"start\");",
					"var countend=pm.collectionVariables.get(\"end\");",
					"",
					"",
					"if (status==\"Created\")",
					"{",
					"    pm.test(\"Status code is 201\", function () {",
					"        pm.response.to.have.status(201);",
					"    });",
					"}",
					"else",
					"{",
					"    if(countstart< eval(countend-1))",
					"    {    pm.collectionVariables.set(\"start\",eval(countstart+1))",
					"    console.log(pm.collectionVariables.get(\"start\"))",
					"    postman.setNextRequest(\"Req_Res_Post\");",
					"    }",
					"    else",
					"    {",
					"        postman.setNextRequest(null);",
					"        pm.collectionVariables.set(\"start\",0);",
					"        pm.test(\"Status code is 200\", function () {",
					"        pm.response.to.have.status(200);",
					"        });",
					"    }",
					"}"
				]
			}
		}
	],
	"variable": [
		{
			"key": "coll_req_name",
			"value": ""
		},
		{
			"key": "Coll_Req_job",
			"value": ""
		},
		{
			"key": "Coll_req_job",
			"value": ""
		},
		{
			"key": "Coll_Req_Name",
			"value": ""
		},
		{
			"key": "Coll_Req_Job",
			"value": ""
		},
		{
			"key": "start",
			"value": ""
		},
		{
			"key": "end",
			"value": "",
			"type": "string"
		}
	]
}